<svg width="153px"  height="153px"  xmlns="http://www.w3.org/2000/svg" viewBox="0 0 100 100" preserveAspectRatio="xMidYMid" class="lds-rolling">
    <circle cx="50" cy="50" fill="none" ng-attr-stroke="{{config.color}}" ng-attr-stroke-width="{{config.width}}" ng-attr-r="{{config.radius}}" ng-attr-stroke-dasharray="{{config.dasharray}}" stroke="#e0e0e0" stroke-width="5" r="20" stroke-dasharray="94.24777960769379 33.41592653589793" transform="rotate(228.847 50 50)">
      <animateTransform attributeName="transform" type="rotate" calcMode="linear" values="0 50 50;360 50 50" keyTimes="0;1" dur="0.6s" begin="0s" repeatCount="indefinite"></animateTransform>
    </circle>
  </svg>